PM/iqmap_qpsk/dump.vcd
$date
	Tue Dec 10 13:47:59 2013
$end
$version
	Icarus Verilog
$end
$timescale
	1ps
$end
$scope module test_iqmap_qpsk $end
$var wire 1 ! ce $end
$var reg 1 " clk $end
$var reg 128 # reader_data [127:0] $end
$var reg 1 $ rst $end
$var reg 1 % valid $end
$scope module qpsk $end
$var wire 1 & CLK $end
$var wire 1 ' RST $end
$var wire 1 ! ce $end
$var wire 128 ( reader_data [127:0] $end
$var wire 1 ) valid_i $end
$var wire 1 * valid_raw $end
$var reg 9 + cnt [8:0] $end
$var reg 4 , raw [3:0] $end
$var reg 128 - reader_data_reg [127:0] $end
$var reg 1 . reader_en $end
$var reg 1 / start_output_flg $end
$var reg 1 0 valid_o $end
$var reg 11 1 xi [10:0] $end
$var reg 11 2 xr [10:0] $end
$upscope $end
$upscope $end
$enddefinitions $end
#0
$dumpvars
bx 2
bx 1
x0
x/
x.
bx -
bx ,
bx +
x*
0)
b101010111100110111101111101010111100110111101111101010111100110111101111101010111100110111101111101010111100110111101111 (
1'
0&
0%
1$
b101010111100110111101111101010111100110111101111101010111100110111101111101010111100110111101111101010111100110111101111 #
0"
z!
$end
#10000
0/
1.
b0 ,
00
0*
b0 -
b0 +
1"
1&
0$
0'
#20000
0"
0&
1$
1'
#30000
1"
1&
#40000
0"
0&
#50000
1/
b1 +
b101010111100110111101111101010111100110111101111101010111100110111101111101010111100110111101111101010111100110111101111 -
0.
1"
1&
1%
1)
#60000
0"
0&
#70000
1"
1&
#80000
0"
0&
#90000
1"
1&
#100000
0"
0&
#110000
b11 +
b1 ,
b11111111111 2
b11111111111 1
10
1*
1"
1&
0%
0)
#120000
0"
0&
#130000
b101 +
1"
1&
#140000
0"
0&
#150000
b111 +
b1 2
1"
1&
#160000
0"
0&
#170000
b1001 +
b11111111111 2
1"
1&
#180000
0"
0&
#190000
b1011 +
b0 ,
b1 1
1"
1&
#200000
0"
0&
#210000
b1101 +
b1 ,
b11111111111 1
1"
1&
#220000
0"
0&
#230000
b1111 +
b0 ,
b1 2
b1 1
1"
1&
#240000
0"
0&
#250000
b10001 +
b1 ,
b11111111111 2
b11111111111 1
1"
1&
#260000
0"
0&
#270000
b10011 +
1"
1&
#280000
0"
0&
#290000
b10101 +
b1 2
1"
1&
#300000
0"
0&
#310000
b10111 +
1"
1&
#320000
0"
0&
#330000
b11001 +
1"
1&
#340000
0"
0&
#350000
b11011 +
b11111111111 2
1"
1&
#360000
0"
0&
#370000
b11101 +
1"
1&
#380000
0"
0&
#390000
b11111 +
b1 2
1"
1&
#400000
0"
0&
#410000
b100001 +
b11111111111 2
1"
1&
#420000
0"
0&
#430000
b100011 +
b0 ,
b1 1
1"
1&
#440000
0"
0&
#450000
b100101 +
b1 ,
b11111111111 1
1"
1&
#460000
0"
0&
#470000
b100111 +
b0 ,
b1 2
b1 1
1"
1&
#480000
0"
0&
#490000
b101001 +
b1 ,
b11111111111 2
b11111111111 1
1"
1&
#500000
0"
0&
#510000
b101011 +
1"
1&
#520000
0"
0&
#530000
b101101 +
b1 2
1"
1&
#540000
0"
0&
#550000
b101111 +
1"
1&
#560000
0"
0&
#570000
b110001 +
1"
1&
#580000
0"
0&
#590000
b110011 +
b11111111111 2
1"
1&
#600000
0"
0&
#610000
b110101 +
1"
1&
#620000
0"
0&
#630000
b110111 +
b1 2
1"
1&
#640000
0"
0&
#650000
b111001 +
b11111111111 2
1"
1&
#660000
0"
0&
#670000
b111011 +
b0 ,
b1 1
1"
1&
#680000
0"
0&
#690000
b111101 +
b1 ,
b11111111111 1
1"
1&
#700000
0"
0&
#710000
b111111 +
b0 ,
b1 2
b1 1
1"
1&
#720000
0"
0&
#730000
b1000001 +
b1 ,
b11111111111 2
b11111111111 1
1"
1&
#740000
0"
0&
#750000
b1000011 +
1"
1&
#760000
0"
0&
#770000
b1000101 +
b1 2
1"
1&
#780000
0"
0&
#790000
b1000111 +
1"
1&
#800000
0"
0&
#810000
b1001001 +
1"
1&
#820000
0"
0&
#830000
b1001011 +
b11111111111 2
1"
1&
#840000
0"
0&
#850000
b1001101 +
1"
1&
#860000
0"
0&
#870000
b1001111 +
b1 2
1"
1&
#880000
0"
0&
#890000
b1010001 +
b11111111111 2
1"
1&
#900000
0"
0&
#910000
b1010011 +
b0 ,
b1 1
1"
1&
#920000
0"
0&
#930000
b1010101 +
b1 ,
b11111111111 1
1"
1&
#940000
0"
0&
#950000
b1010111 +
b0 ,
b1 2
b1 1
1"
1&
#960000
0"
0&
#970000
b1011001 +
b1 ,
b11111111111 2
b11111111111 1
1"
1&
#980000
0"
0&
#990000
b1011011 +
1"
1&
#1000000
0"
0&
#1010000
b1011101 +
b1 2
1"
1&
#1020000
0"
0&
#1030000
b1011111 +
1"
1&
#1040000
0"
0&
#1050000
b1100001 +
1"
1&
#1060000
0"
0&
#1070000
b1100011 +
b11111111111 2
1"
1&
#1080000
0"
0&
#1090000
b1100101 +
1"
1&
#1100000
0"
0&
#1110000
b1100111 +
b1 2
1"
1&
#1120000
0"
0&
#1130000
b1101001 +
b11111111111 2
1"
1&
#1140000
0"
0&
#1150000
b1101011 +
b0 ,
b1 1
1"
1&
#1160000
0"
0&
#1170000
b1101101 +
b1 ,
b11111111111 1
1"
1&
#1180000
0"
0&
#1190000
b1101111 +
b0 ,
b1 2
b1 1
1"
1&
#1200000
0"
0&
#1210000
b1110001 +
b1 ,
b11111111111 2
b11111111111 1
1"
1&
#1220000
0"
0&
#1230000
b1110011 +
1"
1&
#1240000
0"
0&
#1250000
b1110101 +
b1 2
1"
1&
#1260000
0"
0&
#1270000
b1110111 +
1"
1&
#1280000
0"
0&
#1290000
b1111001 +
1"
1&
#1300000
0"
0&
#1310000
b1111011 +
b0 ,
b1 1
1"
1&
#1320000
0"
0&
#1330000
b1111101 +
1"
1&
#1340000
0"
0&
#1350000
b1111111 +
1"
1&
#1360000
0"
0&
#1370000
b10000001 +
1"
1&
#1380000
0"
0&
#1390000
1.
00
0*
0/
b0 +
b0x ,
bx 2
bx 1
1"
1&
