BCD/lcd_control/dump.vcd
$date
	Tue Dec 10 12:48:09 2013
$end
$version
	Icarus Verilog
$end
$timescale
	1s
$end
$scope module test_lcd_control $end
$var reg 1 ! busy $end
$var reg 8 " char [7:0] $end
$var reg 1 # clk $end
$var reg 32 $ error_rate [31:0] $end
$var reg 1 % rst $end
$var reg 1 & start_update $end
$var reg 1 ' valid $end
$scope module control_module $end
$var wire 1 ( CLK $end
$var wire 1 ) RST $end
$var wire 8 * char [7:0] $end
$var wire 1 + lcd_busy $end
$var wire 8 , lcd_char [7:0] $end
$var wire 4 - lcd_col [3:0] $end
$var wire 1 . lcd_row $end
$var wire 1 / lcd_we $end
$var wire 1 0 start_update $end
$var wire 1 1 update $end
$var wire 1 2 valid_i $end
$var reg 1 3 char_out $end
$var reg 80 4 char_reg [79:0] $end
$var reg 5 5 char_s [4:0] $end
$var reg 5 6 s [4:0] $end
$var reg 4 7 state [3:0] $end
$upscope $end
$upscope $end
$enddefinitions $end
#0
$dumpvars
bx 7
bx 6
bx 5
bx 4
x3
x2
x1
00
x/
1.
bx -
bx ,
x+
bx *
1)
0(
x'
0&
1%
b100001011000 $
0#
bx "
x!
$end
#10
0/
b0 ,
b0 -
b0 6
03
b0 7
01
1#
1(
0%
0)
#20
0#
0(
1%
1)
#30
b0 5
1#
1(
#40
0#
0(
#50
1#
1(
1&
10
#60
0#
0(
#70
1#
1(
#80
0#
0(
#90
1#
1(
#100
0#
0(
#110
b1 5
bx00100100 4
1#
1(
b100100 "
b100100 *
1'
12
#120
0#
0(
#130
b10 5
bx0010010000100100 4
1#
1(
#140
0#
0(
#150
b11 5
bx001001000010010000100100 4
1#
1(
#160
0#
0(
#170
b100 5
bx00100100001001000010010000100100 4
1#
1(
#180
0#
0(
b11111 "
b11111 *
#190
b101 5
bx0001111100100100001001000010010000100100 4
1#
1(
#200
0#
0(
#210
b110 5
bx000111110001111100100100001001000010010000100100 4
1#
1(
#220
0#
0(
#230
b111 5
bx00011111000111110001111100100100001001000010010000100100 4
1#
1(
#240
0#
0(
#250
b1000 5
bx0001111100011111000111110001111100100100001001000010010000100100 4
1#
1(
#260
0#
0(
b100000 "
b100000 *
#270
b1001 5
bx001000000001111100011111000111110001111100100100001001000010010000100100 4
1#
1(
#280
0#
0(
#290
b1010 5
b100000001000000001111100011111000111110001111100100100001001000010010000100100 4
1#
1(
#300
0#
0(
#310
b1011 5
1#
1(
#320
0#
0(
#330
b1100 5
1#
1(
#340
0#
0(
#350
b1101 5
1#
1(
b100001 "
b100001 *
#360
0#
0(
#370
b1110 5
1#
1(
#380
0#
0(
#390
b1111 5
1#
1(
#400
0#
0(
#410
b10000 5
1#
1(
#420
0#
0(
#430
b10001 5
1#
1(
#440
0#
0(
#450
b0 5
1#
1(
0'
02
