FFT/fft.vcd
$date
	Tue Dec 17 17:58:29 2013
$end
$version
	Icarus Verilog
$end
$timescale
	1s
$end
$scope module test_fft $end
$var reg 22 ! A0 [21:0] $end
$var reg 22 " A1 [21:0] $end
$var reg 22 # A10 [21:0] $end
$var reg 22 $ A11 [21:0] $end
$var reg 22 % A12 [21:0] $end
$var reg 22 & A13 [21:0] $end
$var reg 22 ' A14 [21:0] $end
$var reg 22 ( A15 [21:0] $end
$var reg 22 ) A16 [21:0] $end
$var reg 22 * A17 [21:0] $end
$var reg 22 + A18 [21:0] $end
$var reg 22 , A19 [21:0] $end
$var reg 22 - A2 [21:0] $end
$var reg 22 . A20 [21:0] $end
$var reg 22 / A21 [21:0] $end
$var reg 22 0 A22 [21:0] $end
$var reg 22 1 A23 [21:0] $end
$var reg 22 2 A24 [21:0] $end
$var reg 22 3 A25 [21:0] $end
$var reg 22 4 A26 [21:0] $end
$var reg 22 5 A27 [21:0] $end
$var reg 22 6 A28 [21:0] $end
$var reg 22 7 A29 [21:0] $end
$var reg 22 8 A3 [21:0] $end
$var reg 22 9 A30 [21:0] $end
$var reg 22 : A31 [21:0] $end
$var reg 22 ; A32 [21:0] $end
$var reg 22 < A33 [21:0] $end
$var reg 22 = A34 [21:0] $end
$var reg 22 > A35 [21:0] $end
$var reg 22 ? A36 [21:0] $end
$var reg 22 @ A37 [21:0] $end
$var reg 22 A A38 [21:0] $end
$var reg 22 B A39 [21:0] $end
$var reg 22 C A4 [21:0] $end
$var reg 22 D A40 [21:0] $end
$var reg 22 E A41 [21:0] $end
$var reg 22 F A42 [21:0] $end
$var reg 22 G A43 [21:0] $end
$var reg 22 H A44 [21:0] $end
$var reg 22 I A45 [21:0] $end
$var reg 22 J A46 [21:0] $end
$var reg 22 K A47 [21:0] $end
$var reg 22 L A48 [21:0] $end
$var reg 22 M A49 [21:0] $end
$var reg 22 N A5 [21:0] $end
$var reg 22 O A50 [21:0] $end
$var reg 22 P A51 [21:0] $end
$var reg 22 Q A52 [21:0] $end
$var reg 22 R A53 [21:0] $end
$var reg 22 S A54 [21:0] $end
$var reg 22 T A55 [21:0] $end
$var reg 22 U A56 [21:0] $end
$var reg 22 V A57 [21:0] $end
$var reg 22 W A58 [21:0] $end
$var reg 22 X A59 [21:0] $end
$var reg 22 Y A6 [21:0] $end
$var reg 22 Z A60 [21:0] $end
$var reg 22 [ A61 [21:0] $end
$var reg 22 \ A62 [21:0] $end
$var reg 22 ] A63 [21:0] $end
$var reg 22 ^ A7 [21:0] $end
$var reg 22 _ A8 [21:0] $end
$var reg 22 ` A9 [21:0] $end
$var reg 1 a clk $end
$var reg 7 b k [6:0] $end
$var reg 1 c rst $end
$var reg 1 d start $end
$scope module FFT_module $end
$var wire 22 e A0 [21:0] $end
$var wire 22 f A1 [21:0] $end
$var wire 22 g A10 [21:0] $end
$var wire 22 h A11 [21:0] $end
$var wire 22 i A12 [21:0] $end
$var wire 22 j A13 [21:0] $end
$var wire 22 k A14 [21:0] $end
$var wire 22 l A15 [21:0] $end
$var wire 22 m A16 [21:0] $end
$var wire 22 n A17 [21:0] $end
$var wire 22 o A18 [21:0] $end
$var wire 22 p A19 [21:0] $end
$var wire 22 q A2 [21:0] $end
$var wire 22 r A20 [21:0] $end
$var wire 22 s A21 [21:0] $end
$var wire 22 t A22 [21:0] $end
$var wire 22 u A23 [21:0] $end
$var wire 22 v A24 [21:0] $end
$var wire 22 w A25 [21:0] $end
$var wire 22 x A26 [21:0] $end
$var wire 22 y A27 [21:0] $end
$var wire 22 z A28 [21:0] $end
$var wire 22 { A29 [21:0] $end
$var wire 22 | A3 [21:0] $end
$var wire 22 } A30 [21:0] $end
$var wire 22 ~ A31 [21:0] $end
$var wire 22 !" A32 [21:0] $end
$var wire 22 "" A33 [21:0] $end
$var wire 22 #" A34 [21:0] $end
$var wire 22 $" A35 [21:0] $end
$var wire 22 %" A36 [21:0] $end
$var wire 22 &" A37 [21:0] $end
$var wire 22 '" A38 [21:0] $end
$var wire 22 (" A39 [21:0] $end
$var wire 22 )" A4 [21:0] $end
$var wire 22 *" A40 [21:0] $end
$var wire 22 +" A41 [21:0] $end
$var wire 22 ," A42 [21:0] $end
$var wire 22 -" A43 [21:0] $end
$var wire 22 ." A44 [21:0] $end
$var wire 22 /" A45 [21:0] $end
$var wire 22 0" A46 [21:0] $end
$var wire 22 1" A47 [21:0] $end
$var wire 22 2" A48 [21:0] $end
$var wire 22 3" A49 [21:0] $end
$var wire 22 4" A5 [21:0] $end
$var wire 22 5" A50 [21:0] $end
$var wire 22 6" A51 [21:0] $end
$var wire 22 7" A52 [21:0] $end
$var wire 22 8" A53 [21:0] $end
$var wire 22 9" A54 [21:0] $end
$var wire 22 :" A55 [21:0] $end
$var wire 22 ;" A56 [21:0] $end
$var wire 22 <" A57 [21:0] $end
$var wire 22 =" A58 [21:0] $end
$var wire 22 >" A59 [21:0] $end
$var wire 22 ?" A6 [21:0] $end
$var wire 22 @" A60 [21:0] $end
$var wire 22 A" A61 [21:0] $end
$var wire 22 B" A62 [21:0] $end
$var wire 22 C" A63 [21:0] $end
$var wire 22 D" A7 [21:0] $end
$var wire 22 E" A8 [21:0] $end
$var wire 22 F" A9 [21:0] $end
$var wire 22 G" Y0 [21:0] $end
$var wire 22 H" Y1 [21:0] $end
$var wire 22 I" Y2 [21:0] $end
$var wire 22 J" Y3 [21:0] $end
$var wire 1 K" clk $end
$var wire 1 L" fin_batterfly $end
$var wire 1 M" rst $end
$var wire 1 N" start $end
$var reg 11 O" AIN0 [10:0] $end
$var reg 11 P" AIN1 [10:0] $end
$var reg 11 Q" AIN2 [10:0] $end
$var reg 11 R" AIN3 [10:0] $end
$var reg 22 S" B0 [21:0] $end
$var reg 22 T" B1 [21:0] $end
$var reg 22 U" B10 [21:0] $end
$var reg 22 V" B11 [21:0] $end
$var reg 22 W" B12 [21:0] $end
$var reg 22 X" B13 [21:0] $end
$var reg 22 Y" B14 [21:0] $end
$var reg 22 Z" B15 [21:0] $end
$var reg 22 [" B16 [21:0] $end
$var reg 22 \" B17 [21:0] $end
$var reg 22 ]" B18 [21:0] $end
$var reg 22 ^" B19 [21:0] $end
$var reg 22 _" B2 [21:0] $end
$var reg 22 `" B20 [21:0] $end
$var reg 22 a" B21 [21:0] $end
$var reg 22 b" B22 [21:0] $end
$var reg 22 c" B23 [21:0] $end
$var reg 22 d" B24 [21:0] $end
$var reg 22 e" B25 [21:0] $end
$var reg 22 f" B26 [21:0] $end
$var reg 22 g" B27 [21:0] $end
$var reg 22 h" B28 [21:0] $end
$var reg 22 i" B29 [21:0] $end
$var reg 22 j" B3 [21:0] $end
$var reg 22 k" B30 [21:0] $end
$var reg 22 l" B31 [21:0] $end
$var reg 22 m" B32 [21:0] $end
$var reg 22 n" B33 [21:0] $end
$var reg 22 o" B34 [21:0] $end
$var reg 22 p" B35 [21:0] $end
$var reg 22 q" B36 [21:0] $end
$var reg 22 r" B37 [21:0] $end
$var reg 22 s" B38 [21:0] $end
$var reg 22 t" B39 [21:0] $end
$var reg 22 u" B4 [21:0] $end
$var reg 22 v" B40 [21:0] $end
$var reg 22 w" B41 [21:0] $end
$var reg 22 x" B42 [21:0] $end
$var reg 22 y" B43 [21:0] $end
$var reg 22 z" B44 [21:0] $end
$var reg 22 {" B45 [21:0] $end
$var reg 22 |" B46 [21:0] $end
$var reg 22 }" B47 [21:0] $end
$var reg 22 ~" B48 [21:0] $end
$var reg 22 !# B49 [21:0] $end
$var reg 22 "# B5 [21:0] $end
$var reg 22 ## B50 [21:0] $end
$var reg 22 $# B51 [21:0] $end
$var reg 22 %# B52 [21:0] $end
$var reg 22 &# B53 [21:0] $end
$var reg 22 '# B54 [21:0] $end
$var reg 22 (# B55 [21:0] $end
$var reg 22 )# B56 [21:0] $end
$var reg 22 *# B57 [21:0] $end
$var reg 22 +# B58 [21:0] $end
$var reg 22 ,# B59 [21:0] $end
$var reg 22 -# B6 [21:0] $end
$var reg 22 .# B60 [21:0] $end
$var reg 22 /# B61 [21:0] $end
$var reg 22 0# B62 [21:0] $end
$var reg 22 1# B63 [21:0] $end
$var reg 22 2# B7 [21:0] $end
$var reg 22 3# B8 [21:0] $end
$var reg 22 4# B9 [21:0] $end
$var reg 22 5# C0 [21:0] $end
$var reg 22 6# C1 [21:0] $end
$var reg 22 7# C10 [21:0] $end
$var reg 22 8# C11 [21:0] $end
$var reg 22 9# C12 [21:0] $end
$var reg 22 :# C13 [21:0] $end
$var reg 22 ;# C14 [21:0] $end
$var reg 22 <# C15 [21:0] $end
$var reg 22 =# C16 [21:0] $end
$var reg 22 ># C17 [21:0] $end
$var reg 22 ?# C18 [21:0] $end
$var reg 22 @# C19 [21:0] $end
$var reg 22 A# C2 [21:0] $end
$var reg 22 B# C20 [21:0] $end
$var reg 22 C# C21 [21:0] $end
$var reg 22 D# C22 [21:0] $end
$var reg 22 E# C23 [21:0] $end
$var reg 22 F# C24 [21:0] $end
$var reg 22 G# C25 [21:0] $end
$var reg 22 H# C26 [21:0] $end
$var reg 22 I# C27 [21:0] $end
$var reg 22 J# C28 [21:0] $end
$var reg 22 K# C29 [21:0] $end
$var reg 22 L# C3 [21:0] $end
$var reg 22 M# C30 [21:0] $end
$var reg 22 N# C31 [21:0] $end
$var reg 22 O# C32 [21:0] $end
$var reg 22 P# C33 [21:0] $end
$var reg 22 Q# C34 [21:0] $end
$var reg 22 R# C35 [21:0] $end
$var reg 22 S# C36 [21:0] $end
$var reg 22 T# C37 [21:0] $end
$var reg 22 U# C38 [21:0] $end
$var reg 22 V# C39 [21:0] $end
$var reg 22 W# C4 [21:0] $end
$var reg 22 X# C40 [21:0] $end
$var reg 22 Y# C41 [21:0] $end
$var reg 22 Z# C42 [21:0] $end
$var reg 22 [# C43 [21:0] $end
$var reg 22 \# C44 [21:0] $end
$var reg 22 ]# C45 [21:0] $end
$var reg 22 ^# C46 [21:0] $end
$var reg 22 _# C47 [21:0] $end
$var reg 22 `# C48 [21:0] $end
$var reg 22 a# C49 [21:0] $end
$var reg 22 b# C5 [21:0] $end
$var reg 22 c# C50 [21:0] $end
$var reg 22 d# C51 [21:0] $end
$var reg 22 e# C52 [21:0] $end
$var reg 22 f# C53 [21:0] $end
$var reg 22 g# C54 [21:0] $end
$var reg 22 h# C55 [21:0] $end
$var reg 22 i# C56 [21:0] $end
$var reg 22 j# C57 [21:0] $end
$var reg 22 k# C58 [21:0] $end
$var reg 22 l# C59 [21:0] $end
$var reg 22 m# C6 [21:0] $end
$var reg 22 n# C60 [21:0] $end
$var reg 22 o# C61 [21:0] $end
$var reg 22 p# C62 [21:0] $end
$var reg 22 q# C63 [21:0] $end
$var reg 22 r# C7 [21:0] $end
$var reg 22 s# C8 [21:0] $end
$var reg 22 t# C9 [21:0] $end
$var reg 22 u# YOUT0 [21:0] $end
$var reg 22 v# YOUT1 [21:0] $end
$var reg 22 w# YOUT10 [21:0] $end
$var reg 22 x# YOUT11 [21:0] $end
$var reg 22 y# YOUT12 [21:0] $end
$var reg 22 z# YOUT13 [21:0] $end
$var reg 22 {# YOUT14 [21:0] $end
$var reg 22 |# YOUT15 [21:0] $end
$var reg 22 }# YOUT16 [21:0] $end
$var reg 22 ~# YOUT17 [21:0] $end
$var reg 22 !$ YOUT18 [21:0] $end
$var reg 22 "$ YOUT19 [21:0] $end
$var reg 22 #$ YOUT2 [21:0] $end
$var reg 22 $$ YOUT20 [21:0] $end
$var reg 22 %$ YOUT21 [21:0] $end
$var reg 22 &$ YOUT22 [21:0] $end
$var reg 22 '$ YOUT23 [21:0] $end
$var reg 22 ($ YOUT24 [21:0] $end
$var reg 22 )$ YOUT25 [21:0] $end
$var reg 22 *$ YOUT26 [21:0] $end
$var reg 22 +$ YOUT27 [21:0] $end
$var reg 22 ,$ YOUT28 [21:0] $end
$var reg 22 -$ YOUT29 [21:0] $end
$var reg 22 .$ YOUT3 [21:0] $end
$var reg 22 /$ YOUT30 [21:0] $end
$var reg 22 0$ YOUT31 [21:0] $end
$var reg 22 1$ YOUT32 [21:0] $end
$var reg 22 2$ YOUT33 [21:0] $end
$var reg 22 3$ YOUT34 [21:0] $end
$var reg 22 4$ YOUT35 [21:0] $end
$var reg 22 5$ YOUT36 [21:0] $end
$var reg 22 6$ YOUT37 [21:0] $end
$var reg 22 7$ YOUT38 [21:0] $end
$var reg 22 8$ YOUT39 [21:0] $end
$var reg 22 9$ YOUT4 [21:0] $end
$var reg 22 :$ YOUT40 [21:0] $end
$var reg 22 ;$ YOUT41 [21:0] $end
$var reg 22 <$ YOUT42 [21:0] $end
$var reg 22 =$ YOUT43 [21:0] $end
$var reg 22 >$ YOUT44 [21:0] $end
$var reg 22 ?$ YOUT45 [21:0] $end
$var reg 22 @$ YOUT46 [21:0] $end
$var reg 22 A$ YOUT47 [21:0] $end
$var reg 22 B$ YOUT48 [21:0] $end
$var reg 22 C$ YOUT49 [21:0] $end
$var reg 22 D$ YOUT5 [21:0] $end
$var reg 22 E$ YOUT50 [21:0] $end
$var reg 22 F$ YOUT51 [21:0] $end
$var reg 22 G$ YOUT52 [21:0] $end
$var reg 22 H$ YOUT53 [21:0] $end
$var reg 22 I$ YOUT54 [21:0] $end
$var reg 22 J$ YOUT55 [21:0] $end
$var reg 22 K$ YOUT56 [21:0] $end
$var reg 22 L$ YOUT57 [21:0] $end
$var reg 22 M$ YOUT58 [21:0] $end
$var reg 22 N$ YOUT59 [21:0] $end
$var reg 22 O$ YOUT6 [21:0] $end
$var reg 22 P$ YOUT60 [21:0] $end
$var reg 22 Q$ YOUT61 [21:0] $end
$var reg 22 R$ YOUT62 [21:0] $end
$var reg 22 S$ YOUT63 [21:0] $end
$var reg 22 T$ YOUT7 [21:0] $end
$var reg 22 U$ YOUT8 [21:0] $end
$var reg 22 V$ YOUT9 [21:0] $end
$var reg 7 W$ cnt [6:0] $end
$var reg 7 X$ k1 [6:0] $end
$var reg 4 Y$ stage [3:0] $end
$var reg 1 Z$ start_batterfly $end
$var reg 1 [$ valid_o $end
$scope module radix4_batterfly_module $end
$var wire 22 \$ A0 [21:0] $end
$var wire 22 ]$ A1 [21:0] $end
$var wire 22 ^$ A2 [21:0] $end
$var wire 22 _$ A3 [21:0] $end
$var wire 22 `$ B0 [21:0] $end
$var wire 22 a$ B1 [21:0] $end
$var wire 22 b$ B2 [21:0] $end
$var wire 22 c$ B3 [21:0] $end
$var wire 22 d$ B3J [21:0] $end
$var wire 22 e$ C0 [21:0] $end
$var wire 22 f$ C1 [21:0] $end
$var wire 22 g$ C2 [21:0] $end
$var wire 22 h$ C3 [21:0] $end
$var wire 17 i$ W1KI [16:0] $end
$var wire 17 j$ W1KR [16:0] $end
$var wire 17 k$ W2KI [16:0] $end
$var wire 17 l$ W2KR [16:0] $end
$var wire 17 m$ W3KI [16:0] $end
$var wire 17 n$ W3KR [16:0] $end
$var wire 22 o$ Y0 [21:0] $end
$var wire 22 p$ Y1 [21:0] $end
$var wire 22 q$ Y2 [21:0] $end
$var wire 22 r$ Y3 [21:0] $end
$var wire 1 K" clk $end
$var wire 7 s$ k [6:0] $end
$var wire 1 t$ rst $end
$var wire 1 u$ valid_i $end
$var reg 4 v$ cnt [3:0] $end
$var reg 1 w$ valid_o $end
$scope function func_k1_cos $end
$var reg 17 x$ func_k1_cos [16:0] $end
$var reg 7 y$ select [6:0] $end
$upscope $end
$scope function func_k1_sin $end
$var reg 17 z$ func_k1_sin [16:0] $end
$var reg 7 {$ select [6:0] $end
$upscope $end
$scope function func_k2_cos $end
$var reg 17 |$ func_k2_cos [16:0] $end
$var reg 7 }$ select [6:0] $end
$upscope $end
$scope function func_k2_sin $end
$var reg 17 ~$ func_k2_sin [16:0] $end
$var reg 7 !% select [6:0] $end
$upscope $end
$scope function func_k3_cos $end
$var reg 17 "% func_k3_cos [16:0] $end
$var reg 7 #% select [6:0] $end
$upscope $end
$scope function func_k3_sin $end
$var reg 17 $% func_k3_sin [16:0] $end
$var reg 7 %% select [6:0] $end
$upscope $end
$scope module u1 $end
$var wire 22 &% A [21:0] $end
$var wire 11 '% AI [10:0] $end
$var wire 11 (% AR [10:0] $end
$var wire 22 )% B [21:0] $end
$var wire 11 *% BI [10:0] $end
$var wire 11 +% BR [10:0] $end
$var wire 22 ,% Y [21:0] $end
$var wire 1 K" clk $end
$var reg 11 -% YI [10:0] $end
$var reg 11 .% YR [10:0] $end
$var reg 1 /% valid_o $end
$upscope $end
$scope module u2 $end
$var wire 22 0% A [21:0] $end
$var wire 11 1% AI [10:0] $end
$var wire 11 2% AR [10:0] $end
$var wire 22 3% B [21:0] $end
$var wire 11 4% BI [10:0] $end
$var wire 11 5% BR [10:0] $end
$var wire 22 6% Y [21:0] $end
$var wire 1 K" clk $end
$var reg 11 7% YI [10:0] $end
$var reg 11 8% YR [10:0] $end
$var reg 1 9% valid_o $end
$upscope $end
$scope module u3 $end
$var wire 22 :% A [21:0] $end
$var wire 11 ;% AI [10:0] $end
$var wire 11 <% AR [10:0] $end
$var wire 22 =% B [21:0] $end
$var wire 11 >% BI [10:0] $end
$var wire 11 ?% BR [10:0] $end
$var wire 22 @% Y [21:0] $end
$var wire 1 K" clk $end
$var reg 11 A% YI [10:0] $end
$var reg 11 B% YR [10:0] $end
$upscope $end
$scope module u4 $end
$var wire 22 C% A [21:0] $end
$var wire 11 D% AI [10:0] $end
$var wire 11 E% AR [10:0] $end
$var wire 22 F% B [21:0] $end
$var wire 11 G% BI [10:0] $end
$var wire 11 H% BR [10:0] $end
$var wire 22 I% Y [21:0] $end
$var wire 1 K" clk $end
$var reg 11 J% YI [10:0] $end
$var reg 11 K% YR [10:0] $end
$upscope $end
$scope module u5 $end
$var wire 22 L% A [21:0] $end
$var wire 11 M% AI [10:0] $end
$var wire 11 N% AR [10:0] $end
$var wire 22 O% Y [21:0] $end
$var wire 1 K" clk $end
$var reg 11 P% YI [10:0] $end
$var reg 11 Q% YR [10:0] $end
$upscope $end
$scope module u6 $end
$var wire 22 R% A [21:0] $end
$var wire 11 S% AI [10:0] $end
$var wire 11 T% AR [10:0] $end
$var wire 22 U% B [21:0] $end
$var wire 11 V% BI [10:0] $end
$var wire 11 W% BR [10:0] $end
$var wire 22 X% Y [21:0] $end
$var wire 1 K" clk $end
$var reg 11 Y% YI [10:0] $end
$var reg 11 Z% YR [10:0] $end
$var reg 1 [% valid_o $end
$upscope $end
$scope module u7 $end
$var wire 22 \% A [21:0] $end
$var wire 11 ]% AI [10:0] $end
$var wire 11 ^% AR [10:0] $end
$var wire 22 _% B [21:0] $end
$var wire 11 `% BI [10:0] $end
$var wire 11 a% BR [10:0] $end
$var wire 22 b% Y [21:0] $end
$var wire 1 K" clk $end
$var reg 11 c% YI [10:0] $end
$var reg 11 d% YR [10:0] $end
$upscope $end
$scope module u8 $end
$var wire 22 e% A [21:0] $end
$var wire 11 f% AI [10:0] $end
$var wire 11 g% AR [10:0] $end
$var wire 22 h% B [21:0] $end
$var wire 11 i% BI [10:0] $end
$var wire 11 j% BR [10:0] $end
$var wire 22 k% Y [21:0] $end
$var wire 1 K" clk $end
$var reg 11 l% YI [10:0] $end
$var reg 11 m% YR [10:0] $end
$upscope $end
$scope module u9 $end
$var wire 22 n% A [21:0] $end
$var wire 11 o% AI [10:0] $end
$var wire 11 p% AR [10:0] $end
$var wire 22 q% B [21:0] $end
$var wire 11 r% BI [10:0] $end
$var wire 11 s% BR [10:0] $end
$var wire 22 t% Y [21:0] $end
$var wire 1 K" clk $end
$var reg 11 u% YI [10:0] $end
$var reg 11 v% YR [10:0] $end
$var reg 1 w% valid_o $end
$upscope $end
$scope module u10 $end
$var wire 22 x% A [21:0] $end
$var wire 11 y% AI [10:0] $end
$var wire 11 z% AR [10:0] $end
$var wire 17 {% WI [16:0] $end
$var wire 17 |% WR [16:0] $end
$var wire 22 }% Y [21:0] $end
$var wire 1 K" clk $end
$var wire 1 ~% rst $end
$var reg 11 !& YI [10:0] $end
$var reg 45 "& YI1 [44:0] $end
$var reg 45 #& YI2 [44:0] $end
$var reg 11 $& YR [10:0] $end
$var reg 45 %& YR1 [44:0] $end
$var reg 45 && YR2 [44:0] $end
$upscope $end
$scope module u11 $end
$var wire 22 '& A [21:0] $end
$var wire 11 (& AI [10:0] $end
$var wire 11 )& AR [10:0] $end
$var wire 17 *& WI [16:0] $end
$var wire 17 +& WR [16:0] $end
$var wire 22 ,& Y [21:0] $end
$var wire 1 K" clk $end
$var wire 1 -& rst $end
$var reg 11 .& YI [10:0] $end
$var reg 45 /& YI1 [44:0] $end
$var reg 45 0& YI2 [44:0] $end
$var reg 11 1& YR [10:0] $end
$var reg 45 2& YR1 [44:0] $end
$var reg 45 3& YR2 [44:0] $end
$upscope $end
$scope module u12 $end
$var wire 22 4& A [21:0] $end
$var wire 11 5& AI [10:0] $end
$var wire 11 6& AR [10:0] $end
$var wire 17 7& WI [16:0] $end
$var wire 17 8& WR [16:0] $end
$var wire 22 9& Y [21:0] $end
$var wire 1 K" clk $end
$var wire 1 :& rst $end
$var reg 11 ;& YI [10:0] $end
$var reg 45 <& YI1 [44:0] $end
$var reg 45 =& YI2 [44:0] $end
$var reg 11 >& YR [10:0] $end
$var reg 45 ?& YR1 [44:0] $end
$var reg 45 @& YR2 [44:0] $end
$upscope $end
$upscope $end
$upscope $end
$upscope $end
$enddefinitions $end
#0
$dumpvars
bx @&
bx ?&
bx >&
bx =&
bx <&
bx ;&
z:&
bx 9&
bx 8&
bx 7&
bx 6&
bx 5&
bx 4&
bx 3&
bx 2&
bx 1&
bx 0&
bx /&
bx .&
z-&
bx ,&
bx +&
bx *&
bx )&
bx (&
bx '&
bx &&
bx %&
bx $&
bx #&
bx "&
bx !&
z~%
bx }%
bx |%
bx {%
bx z%
bx y%
bx x%
xw%
bx v%
bx u%
bx t%
bx s%
bx r%
bx q%
bx p%
bx o%
bx n%
bx m%
bx l%
bx k%
bx j%
bx i%
bx h%
bx g%
bx f%
bx e%
bx d%
bx c%
bx b%
bx a%
bx `%
bx _%
bx ^%
bx ]%
bx \%
x[%
bx Z%
bx Y%
bx X%
bx W%
bx V%
bx U%
bx T%
bx S%
bx R%
bx Q%
bx P%
bx O%
bx N%
bx M%
bx L%
bx K%
bx J%
bx I%
b0 H%
b0 G%
b0 F%
b0 E%
b0 D%
b0 C%
bx B%
bx A%
bx @%
b0 ?%
b0 >%
b0 =%
b0 <%
b0 ;%
b0 :%
x9%
bx 8%
bx 7%
bx 6%
b0 5%
b0 4%
b0 3%
b0 2%
b0 1%
b0 0%
x/%
bx .%
bx -%
bx ,%
b0 +%
b0 *%
b0 )%
b0 (%
b0 '%
b0 &%
bx %%
bx $%
bx #%
bx "%
bx !%
bx ~$
bx }$
bx |$
bx {$
bx z$
bx y$
bx x$
xw$
bx v$
xu$
zt$
bx s$
bx r$
bx q$
bx p$
bx o$
bx n$
bx m$
bx l$
bx k$
bx j$
bx i$
bx h$
bx g$
bx f$
bx e$
bx d$
bx c$
bx b$
bx a$
bx `$
b0 _$
b0 ^$
b0 ]$
b0 \$
x[$
xZ$
bx Y$
bx X$
bx W$
bx V$
bx U$
bx T$
bx S$
bx R$
bx Q$
bx P$
bx O$
bx N$
bx M$
bx L$
bx K$
bx J$
bx I$
bx H$
bx G$
bx F$
bx E$
bx D$
bx C$
bx B$
bx A$
bx @$
bx ?$
bx >$
bx =$
bx <$
bx ;$
bx :$
bx 9$
bx 8$
bx 7$
bx 6$
bx 5$
bx 4$
bx 3$
bx 2$
bx 1$
bx 0$
bx /$
bx .$
bx -$
bx ,$
bx +$
bx *$
bx )$
bx ($
bx '$
bx &$
bx %$
bx $$
bx #$
bx "$
bx !$
bx ~#
bx }#
bx |#
bx {#
bx z#
bx y#
bx x#
bx w#
bx v#
bx u#
bx t#
bx s#
bx r#
bx q#
bx p#
bx o#
bx n#
bx m#
bx l#
bx k#
bx j#
bx i#
bx h#
bx g#
bx f#
bx e#
bx d#
bx c#
bx b#
bx a#
bx `#
bx _#
bx ^#
bx ]#
bx \#
bx [#
bx Z#
bx Y#
bx X#
bx W#
bx V#
bx U#
bx T#
bx S#
bx R#
bx Q#
bx P#
bx O#
bx N#
bx M#
bx L#
bx K#
bx J#
bx I#
bx H#
bx G#
bx F#
bx E#
bx D#
bx C#
bx B#
bx A#
bx @#
bx ?#
bx >#
bx =#
bx <#
bx ;#
bx :#
bx 9#
bx 8#
bx 7#
bx 6#
bx 5#
bx 4#
bx 3#
bx 2#
bx 1#
bx 0#
bx /#
bx .#
bx -#
bx ,#
bx +#
bx *#
bx )#
bx (#
bx '#
bx &#
bx %#
bx $#
bx ##
bx "#
bx !#
bx ~"
bx }"
bx |"
bx {"
bx z"
bx y"
bx x"
bx w"
bx v"
bx u"
bx t"
bx s"
bx r"
bx q"
bx p"
bx o"
bx n"
bx m"
bx l"
bx k"
bx j"
bx i"
bx h"
bx g"
bx f"
bx e"
bx d"
bx c"
bx b"
bx a"
bx `"
bx _"
bx ^"
bx ]"
bx \"
bx ["
bx Z"
bx Y"
bx X"
bx W"
bx V"
bx U"
bx T"
bx S"
bx R"
bx Q"
bx P"
bx O"
0N"
1M"
xL"
0K"
bx J"
bx I"
bx H"
bx G"
b0 F"
b0 E"
b0 D"
b0 C"
b0 B"
b0 A"
b0 @"
b0 ?"
b0 >"
b0 ="
b0 <"
b0 ;"
b0 :"
b0 9"
b0 8"
b0 7"
b0 6"
b0 5"
b0 4"
b0 3"
b0 2"
b0 1"
b0 0"
b0 /"
b0 ."
b0 -"
b0 ,"
b0 +"
b0 *"
b0 )"
b0 ("
b0 '"
b0 &"
b0 %"
b0 $"
b0 #"
b0 ""
b0 !"
b0 ~
b0 }
b0 |
b0 {
b0 z
b0 y
b0 x
b0 w
b0 v
b0 u
b0 t
b0 s
b0 r
b0 q
b0 p
b0 o
b0 n
b0 m
b0 l
b0 k
b0 j
b0 i
b0 h
b0 g
b0 f
b0 e
0d
1c
b1 b
0a
b0 `
b0 _
b0 ^
b0 ]
b0 \
b0 [
b0 Z
b0 Y
b0 X
b0 W
b0 V
b0 U
b0 T
b0 S
b0 R
b0 Q
b0 P
b0 O
b0 N
b0 M
b0 L
b0 K
b0 J
b0 I
b0 H
b0 G
b0 F
b0 E
b0 D
b0 C
b0 B
b0 A
b0 @
b0 ?
b0 >
b0 =
b0 <
b0 ;
b0 :
b0 9
b0 8
b0 7
b0 6
b0 5
b0 4
b0 3
b0 2
b0 1
b0 0
b0 /
b0 .
b0 -
b0 ,
b0 +
b0 *
b0 )
b0 (
b0 '
b0 &
b0 %
b0 $
b0 #
b0 "
b0 !
$end
#5
b0 S%
b0 ]%
b0 T%
b0 ^%
b0 V%
b0 `%
b0 W%
b0 a%
b0 f%
b0 o%
b0 g%
b0 p%
b0 M%
b0 N%
b0 -%
b0 .%
b0 `$
b0 ,%
b0 R%
b0 \%
b0 7%
b0 8%
b0 a$
b0 6%
b0 U%
b0 _%
b0 A%
b0 B%
b0 b$
b0 @%
b0 e%
b0 n%
b0 J%
b0 K%
b0 c$
b0 I%
b0 L%
1a
1K"
#10
0[$
0Z$
0u$
b0 W$
b0 Y$
0a
0K"
0c
0M"
#15
b0 y%
b0 z%
b0 i%
b0 r%
b0 j%
b0 s%
b0 c%
b0 d%
b0 f$
b0 b%
b0 x%
b0 Y%
b0 Z%
b0 e$
b0 X%
b0 G"
b0 o$
b0 P%
b0 Q%
b0 d$
b0 O%
b0 h%
b0 q%
1a
1K"
#20
0a
0K"
1c
1M"
1d
1N"
#25
b0 (&
b0 )&
b0 5&
b0 6&
b0 l%
b0 m%
b0 g$
b0 k%
b0 '&
b0 u%
b0 v%
b0 h$
b0 t%
b0 4&
b1 Y$
1a
1K"
#30
0a
0K"
0d
0N"
#35
b0 i$
b0 z$
b0 {$
b0 k$
b0 *&
b0 7&
b0 ~$
b0 !%
b0 m$
b0 {%
b0 $%
b0 %%
b1111111111111111 j$
b1111111111111111 8&
b1111111111111111 x$
b0 y$
b1111111111111111 l$
b1111111111111111 +&
b1111111111111111 |$
b0 }$
b1111111111111111 n$
b1111111111111111 |%
b1111111111111111 "%
b0 #%
1Z$
1u$
b0 X$
b0 s$
b0 R"
b0 Q"
b0 P"
b0 O"
1a
1K"
#40
0a
0K"
#45
b0 =&
b0 <&
b0 @&
b0 ?&
b0 0&
b0 /&
b0 3&
b0 2&
b0 #&
b0 "&
b0 &&
b0 %&
0w$
0L"
b1 v$
1a
1K"
#50
0a
0K"
#55
b0 ;&
b0 >&
b0 J"
b0 r$
b0 9&
b0 .&
b0 1&
b0 I"
b0 q$
b0 ,&
b0 !&
b0 $&
b0 H"
b0 p$
b0 }%
b10 v$
1a
1K"
#60
0a
0K"
#65
1w$
1L"
b11 v$
1a
1K"
#70
0a
0K"
#75
0w$
0L"
b0 v$
b1 W$
0Z$
0u$
b0 ~"
b0 m"
b0 ["
b0 S"
1a
1K"
#80
0a
0K"
#85
b1100100010100 i$
b1100100010100 z$
b1 {$
b1111111111 k$
b1111111111 *&
b1111111111 7&
b1111111111 ~$
b1 !%
b111101 m$
b111101 {%
b111101 $%
b1 %%
b1111111011000011 j$
b1111111011000011 8&
b1111111011000011 x$
b1 y$
b1111111111110111 l$
b1111111111110111 +&
b1111111111110111 |$
b1 }$
b1111110001010001 n$
b1111110001010001 |%
b1111110001010001 "%
b1 #%
1Z$
1u$
b1 X$
b1 s$
1a
1K"
#90
0a
0K"
#95
b1 v$
1a
1K"
#100
0a
0K"
#105
b10 v$
1a
1K"
#110
0a
0K"
#115
1w$
1L"
b11 v$
1a
1K"
#120
0a
0K"
#125
0w$
0L"
b0 v$
b10 W$
0Z$
0u$
b0 !#
b0 n"
b0 \"
b0 T"
1a
1K"
#130
0a
0K"
