PM/iqmap_bpsk/dump.vcd
$date
	Mon Dec  9 17:16:52 2013
$end
$version
	Icarus Verilog
$end
$timescale
	1ps
$end
$scope module test_lcd_control $end
$var wire 1 ! ce $end
$var reg 1 " clk $end
$var reg 128 # reader_data [127:0] $end
$var reg 1 $ rst $end
$var reg 1 % valid $end
$scope module bpsk $end
$var wire 1 & CLK $end
$var wire 1 ' RST $end
$var wire 1 ! ce $end
$var wire 128 ( reader_data [127:0] $end
$var wire 1 ) valid_i $end
$var wire 1 * valid_raw $end
$var reg 9 + cnt [8:0] $end
$var reg 4 , raw [3:0] $end
$var reg 128 - reader_data_reg [127:0] $end
$var reg 1 . reader_en $end
$var reg 1 / start_output_flg $end
$var reg 1 0 valid_o $end
$var reg 11 1 xi [10:0] $end
$var reg 11 2 xr [10:0] $end
$upscope $end
$upscope $end
$enddefinitions $end
#0
$dumpvars
bx 2
bx 1
x0
x/
x.
bx -
bx ,
bx +
x*
0)
b101010111100110111101111101010111100110111101111101010111100110111101111101010111100110111101111101010111100110111101111 (
1'
0&
0%
1$
b101010111100110111101111101010111100110111101111101010111100110111101111101010111100110111101111101010111100110111101111 #
0"
z!
$end
#10000000000000
0/
1.
b0 ,
00
0*
b0 -
b0 +
1"
1&
0$
0'
#20000000000000
0"
0&
1$
1'
#30000000000000
1"
1&
#40000000000000
0"
0&
#50000000000000
1/
b0 1
b101010111100110111101111101010111100110111101111101010111100110111101111101010111100110111101111101010111100110111101111 -
0.
1"
1&
1%
1)
#60000000000000
0"
0&
#70000000000000
1"
1&
#80000000000000
0"
0&
#90000000000000
1"
1&
#100000000000000
0"
0&
#110000000000000
b1 +
b1 ,
b11111111111 2
10
1*
1"
1&
0%
0)
#120000000000000
0"
0&
#130000000000000
b10 +
1"
1&
#140000000000000
0"
0&
#150000000000000
b11 +
1"
1&
#160000000000000
0"
0&
#170000000000000
b100 +
1"
1&
#180000000000000
0"
0&
#190000000000000
b101 +
b0 ,
b1 2
1"
1&
#200000000000000
0"
0&
#210000000000000
b110 +
b1 ,
b11111111111 2
1"
1&
#220000000000000
0"
0&
#230000000000000
b111 +
1"
1&
#240000000000000
0"
0&
#250000000000000
b1000 +
1"
1&
#260000000000000
0"
0&
#270000000000000
b1001 +
1"
1&
#280000000000000
0"
0&
#290000000000000
b1010 +
b0 ,
b1 2
1"
1&
#300000000000000
0"
0&
#310000000000000
b1011 +
b1 ,
b11111111111 2
1"
1&
#320000000000000
0"
0&
#330000000000000
b1100 +
1"
1&
#340000000000000
0"
0&
#350000000000000
b1101 +
b0 ,
b1 2
1"
1&
#360000000000000
0"
0&
#370000000000000
b1110 +
1"
1&
#380000000000000
0"
0&
#390000000000000
b1111 +
b1 ,
b11111111111 2
1"
1&
#400000000000000
0"
0&
#410000000000000
b10000 +
1"
1&
#420000000000000
0"
0&
#430000000000000
b10001 +
1"
1&
#440000000000000
0"
0&
#450000000000000
b10010 +
1"
1&
#460000000000000
0"
0&
#470000000000000
b10011 +
b0 ,
b1 2
1"
1&
#480000000000000
0"
0&
#490000000000000
b10100 +
b1 ,
b11111111111 2
1"
1&
#500000000000000
0"
0&
#510000000000000
b10101 +
b0 ,
b1 2
1"
1&
#520000000000000
0"
0&
#530000000000000
b10110 +
b1 ,
b11111111111 2
1"
1&
#540000000000000
0"
0&
#550000000000000
b10111 +
b0 ,
b1 2
1"
1&
#560000000000000
0"
0&
#570000000000000
b11000 +
b1 ,
b11111111111 2
1"
1&
#580000000000000
0"
0&
#590000000000000
b11001 +
1"
1&
#600000000000000
0"
0&
#610000000000000
b11010 +
1"
1&
#620000000000000
0"
0&
#630000000000000
b11011 +
1"
1&
#640000000000000
0"
0&
#650000000000000
b11100 +
1"
1&
#660000000000000
0"
0&
#670000000000000
b11101 +
b0 ,
b1 2
1"
1&
#680000000000000
0"
0&
#690000000000000
b11110 +
b1 ,
b11111111111 2
1"
1&
#700000000000000
0"
0&
#710000000000000
b11111 +
1"
1&
#720000000000000
0"
0&
#730000000000000
b100000 +
1"
1&
#740000000000000
0"
0&
#750000000000000
b100001 +
1"
1&
#760000000000000
0"
0&
#770000000000000
b100010 +
b0 ,
b1 2
1"
1&
#780000000000000
0"
0&
#790000000000000
b100011 +
b1 ,
b11111111111 2
1"
1&
#800000000000000
0"
0&
#810000000000000
b100100 +
1"
1&
#820000000000000
0"
0&
#830000000000000
b100101 +
b0 ,
b1 2
1"
1&
#840000000000000
0"
0&
#850000000000000
b100110 +
1"
1&
#860000000000000
0"
0&
#870000000000000
b100111 +
b1 ,
b11111111111 2
1"
1&
#880000000000000
0"
0&
#890000000000000
b101000 +
1"
1&
#900000000000000
0"
0&
#910000000000000
b101001 +
1"
1&
#920000000000000
0"
0&
#930000000000000
b101010 +
1"
1&
#940000000000000
0"
0&
#950000000000000
b101011 +
b0 ,
b1 2
1"
1&
#960000000000000
0"
0&
#970000000000000
b101100 +
b1 ,
b11111111111 2
1"
1&
#980000000000000
0"
0&
#990000000000000
b101101 +
b0 ,
b1 2
1"
1&
#1000000000000000
0"
0&
#1010000000000000
b101110 +
b1 ,
b11111111111 2
1"
1&
#1020000000000000
0"
0&
#1030000000000000
b101111 +
b0 ,
b1 2
1"
1&
#1040000000000000
0"
0&
#1050000000000000
b110000 +
b1 ,
b11111111111 2
1"
1&
#1060000000000000
0"
0&
#1070000000000000
b110001 +
1"
1&
#1080000000000000
0"
0&
#1090000000000000
b110010 +
1"
1&
#1100000000000000
0"
0&
#1110000000000000
b110011 +
1"
1&
#1120000000000000
0"
0&
#1130000000000000
b110100 +
1"
1&
#1140000000000000
0"
0&
#1150000000000000
b110101 +
b0 ,
b1 2
1"
1&
#1160000000000000
0"
0&
#1170000000000000
b110110 +
b1 ,
b11111111111 2
1"
1&
#1180000000000000
0"
0&
#1190000000000000
b110111 +
1"
1&
#1200000000000000
0"
0&
#1210000000000000
b111000 +
1"
1&
#1220000000000000
0"
0&
#1230000000000000
b111001 +
1"
1&
#1240000000000000
0"
0&
#1250000000000000
b111010 +
b0 ,
b1 2
1"
1&
#1260000000000000
0"
0&
#1270000000000000
b111011 +
b1 ,
b11111111111 2
1"
1&
#1280000000000000
0"
0&
#1290000000000000
b111100 +
1"
1&
#1300000000000000
0"
0&
#1310000000000000
b111101 +
b0 ,
b1 2
1"
1&
#1320000000000000
0"
0&
#1330000000000000
b111110 +
1"
1&
#1340000000000000
0"
0&
#1350000000000000
b111111 +
b1 ,
b11111111111 2
1"
1&
#1360000000000000
0"
0&
#1370000000000000
b1000000 +
1"
1&
#1380000000000000
0"
0&
#1390000000000000
b1000001 +
1"
1&
#1400000000000000
0"
0&
#1410000000000000
b1000010 +
1"
1&
#1420000000000000
0"
0&
#1430000000000000
b1000011 +
b0 ,
b1 2
1"
1&
#1440000000000000
0"
0&
#1450000000000000
b1000100 +
b1 ,
b11111111111 2
1"
1&
#1460000000000000
0"
0&
#1470000000000000
b1000101 +
b0 ,
b1 2
1"
1&
#1480000000000000
0"
0&
#1490000000000000
b1000110 +
b1 ,
b11111111111 2
1"
1&
#1500000000000000
0"
0&
#1510000000000000
b1000111 +
b0 ,
b1 2
1"
1&
#1520000000000000
0"
0&
#1530000000000000
b1001000 +
b1 ,
b11111111111 2
1"
1&
#1540000000000000
0"
0&
#1550000000000000
b1001001 +
1"
1&
#1560000000000000
0"
0&
#1570000000000000
b1001010 +
1"
1&
#1580000000000000
0"
0&
#1590000000000000
b1001011 +
1"
1&
#1600000000000000
0"
0&
#1610000000000000
b1001100 +
1"
1&
#1620000000000000
0"
0&
#1630000000000000
b1001101 +
b0 ,
b1 2
1"
1&
#1640000000000000
0"
0&
#1650000000000000
b1001110 +
b1 ,
b11111111111 2
1"
1&
#1660000000000000
0"
0&
#1670000000000000
b1001111 +
1"
1&
#1680000000000000
0"
0&
#1690000000000000
b1010000 +
1"
1&
#1700000000000000
0"
0&
#1710000000000000
b1010001 +
1"
1&
#1720000000000000
0"
0&
#1730000000000000
b1010010 +
b0 ,
b1 2
1"
1&
#1740000000000000
0"
0&
#1750000000000000
b1010011 +
b1 ,
b11111111111 2
1"
1&
#1760000000000000
0"
0&
#1770000000000000
b1010100 +
1"
1&
#1780000000000000
0"
0&
#1790000000000000
b1010101 +
b0 ,
b1 2
1"
1&
#1800000000000000
0"
0&
#1810000000000000
b1010110 +
1"
1&
#1820000000000000
0"
0&
#1830000000000000
b1010111 +
b1 ,
b11111111111 2
1"
1&
#1840000000000000
0"
0&
#1850000000000000
b1011000 +
1"
1&
#1860000000000000
0"
0&
#1870000000000000
b1011001 +
1"
1&
#1880000000000000
0"
0&
#1890000000000000
b1011010 +
1"
1&
#1900000000000000
0"
0&
#1910000000000000
b1011011 +
b0 ,
b1 2
1"
1&
#1920000000000000
0"
0&
#1930000000000000
b1011100 +
b1 ,
b11111111111 2
1"
1&
#1940000000000000
0"
0&
#1950000000000000
b1011101 +
b0 ,
b1 2
1"
1&
#1960000000000000
0"
0&
#1970000000000000
b1011110 +
b1 ,
b11111111111 2
1"
1&
#1980000000000000
0"
0&
#1990000000000000
b1011111 +
b0 ,
b1 2
1"
1&
#2000000000000000
0"
0&
#2010000000000000
b1100000 +
b1 ,
b11111111111 2
1"
1&
#2020000000000000
0"
0&
#2030000000000000
b1100001 +
1"
1&
#2040000000000000
0"
0&
#2050000000000000
b1100010 +
1"
1&
#2060000000000000
0"
0&
#2070000000000000
b1100011 +
1"
1&
#2080000000000000
0"
0&
#2090000000000000
b1100100 +
1"
1&
#2100000000000000
0"
0&
#2110000000000000
b1100101 +
b0 ,
b1 2
1"
1&
#2120000000000000
0"
0&
#2130000000000000
b1100110 +
b1 ,
b11111111111 2
1"
1&
#2140000000000000
0"
0&
#2150000000000000
b1100111 +
1"
1&
#2160000000000000
0"
0&
#2170000000000000
b1101000 +
1"
1&
#2180000000000000
0"
0&
#2190000000000000
b1101001 +
1"
1&
#2200000000000000
0"
0&
#2210000000000000
b1101010 +
b0 ,
b1 2
1"
1&
#2220000000000000
0"
0&
#2230000000000000
b1101011 +
b1 ,
b11111111111 2
1"
1&
#2240000000000000
0"
0&
#2250000000000000
b1101100 +
1"
1&
#2260000000000000
0"
0&
#2270000000000000
b1101101 +
b0 ,
b1 2
1"
1&
#2280000000000000
0"
0&
#2290000000000000
b1101110 +
1"
1&
#2300000000000000
0"
0&
#2310000000000000
b1101111 +
b1 ,
b11111111111 2
1"
1&
#2320000000000000
0"
0&
#2330000000000000
b1110000 +
1"
1&
#2340000000000000
0"
0&
#2350000000000000
b1110001 +
1"
1&
#2360000000000000
0"
0&
#2370000000000000
b1110010 +
1"
1&
#2380000000000000
0"
0&
#2390000000000000
b1110011 +
b0 ,
b1 2
1"
1&
#2400000000000000
0"
0&
#2410000000000000
b1110100 +
b1 ,
b11111111111 2
1"
1&
#2420000000000000
0"
0&
#2430000000000000
b1110101 +
b0 ,
b1 2
1"
1&
#2440000000000000
0"
0&
#2450000000000000
b1110110 +
b1 ,
b11111111111 2
1"
1&
#2460000000000000
0"
0&
#2470000000000000
b1110111 +
b0 ,
b1 2
1"
1&
#2480000000000000
0"
0&
#2490000000000000
b1111000 +
b1 ,
b11111111111 2
1"
1&
#2500000000000000
0"
0&
#2510000000000000
b1111001 +
b0 ,
b1 2
1"
1&
#2520000000000000
0"
0&
#2530000000000000
b1111010 +
1"
1&
#2540000000000000
0"
0&
#2550000000000000
b1111011 +
1"
1&
#2560000000000000
0"
0&
#2570000000000000
b1111100 +
1"
1&
#2580000000000000
0"
0&
#2590000000000000
b1111101 +
1"
1&
#2600000000000000
0"
0&
#2610000000000000
b1111110 +
1"
1&
#2620000000000000
0"
0&
#2630000000000000
b1111111 +
1"
1&
#2640000000000000
0"
0&
#2650000000000000
b10000000 +
1"
1&
#2660000000000000
0"
0&
#2670000000000000
1.
00
0*
0/
b10000001 +
b0x ,
bx 2
1"
1&
